{
  "data": [
    {
      "category": "3.10",
      "date": "2024-08",
      "downloads": 40
    },
    {
      "category": "3.10",
      "date": "2024-09",
      "downloads": 246
    },
    {
      "category": "3.10",
      "date": "2024-10",
      "downloads": 242
    },
    {
      "category": "3.10",
      "date": "2024-11",
      "downloads": 240
    },
    {
      "category": "3.10",
      "date": "2024-12",
      "downloads": 254
    },
    {
      "category": "3.10",
      "date": "2025-01",
      "downloads": 250
    },
    {
      "category": "3.10",
      "date": "2025-02",
      "downloads": 177
    },
    {
      "category": "3.11",
      "date": "2024-08",
      "downloads": 40
    },
    {
      "category": "3.11",
      "date": "2024-09",
      "downloads": 239
    },
    {
      "category": "3.11",
      "date": "2024-10",
      "downloads": 238
    },
    {
      "category": "3.11",
      "date": "2024-11",
      "downloads": 240
    },
    {
      "category": "3.11",
      "date": "2024-12",
      "downloads": 250
    },
    {
      "category": "3.11",
      "date": "2025-01",
      "downloads": 248
    },
    {
      "category": "3.11",
      "date": "2025-02",
      "downloads": 176
    },
    {
      "category": "3.12",
      "date": "2024-08",
      "downloads": 40
    },
    {
      "category": "3.12",
      "date": "2024-09",
      "downloads": 242
    },
    {
      "category": "3.12",
      "date": "2024-10",
      "downloads": 238
    },
    {
      "category": "3.12",
      "date": "2024-11",
      "downloads": 242
    },
    {
      "category": "3.12",
      "date": "2024-12",
      "downloads": 250
    },
    {
      "category": "3.12",
      "date": "2025-01",
      "downloads": 250
    },
    {
      "category": "3.12",
      "date": "2025-02",
      "downloads": 176
    },
    {
      "category": "3.9",
      "date": "2024-10",
      "downloads": 2
    },
    {
      "category": "3.9",
      "date": "2024-11",
      "downloads": 6
    },
    {
      "category": "null",
      "date": "2024-08",
      "downloads": 2
    },
    {
      "category": "null",
      "date": "2024-09",
      "downloads": 30
    },
    {
      "category": "null",
      "date": "2024-10",
      "downloads": 108
    },
    {
      "category": "null",
      "date": "2024-11",
      "downloads": 54
    },
    {
      "category": "null",
      "date": "2024-12",
      "downloads": 37
    },
    {
      "category": "null",
      "date": "2025-01",
      "downloads": 99
    },
    {
      "category": "null",
      "date": "2025-02",
      "downloads": 77
    }
  ],
  "package": "visailu",
  "type": "python_minor_downloads"
}
